В лесу родилась ёлочка,































В лесу она росла,































Зимой и летом стройная,































Зелёная была ...















Ivan!!!







Petr







Petr



Первая строка!!!

Petr
